model	is_pca	Mean	95% CI	Min.	Max
lr	False	0.6035767865486429	0.16530234017964276	0.3968531468531469	0.8
svm	False	0.5876334583264285	0.16853709422554786	0.4141414141414141	0.8333333333333334
lr	True	0.577959218355119	0.16945964720704462	0.3286713286713286	0.797979797979798
rf	False	0.5716783437470219	0.13553838096547974	0.3706293706293706	0.7525252525252526
ada	False	0.5630598560216494	0.16182899367691575	0.3286713286713286	0.75
rf	True	0.5568463057382603	0.1675486082893709	0.3484848484848485	0.8535353535353536
svm	True	0.5521246851263496	0.15601833363338757	0.375	0.7148148148148148
knn	False	0.5489816990778772	0.1665612370176863	0.3898601398601399	0.8333333333333333
ada	True	0.5480240955050547	0.15978419361524485	0.2916666666666666	0.75
knn	True	0.5371285615400664	0.18164667343183818	0.25	0.819047619047619
