method	is_pca	Mean	95% CI	Min.	Max
deepseg	False	0.5889320641067487	0.1709780814070246	0.3958333333333333	0.8333333333333334
none	False	0.5806423985117929	0.13957500165268258	0.4157088122605364	0.7165775401069518
deepseg	True	0.5778634280508173	0.18050113807758347	0.25	0.8535353535353536
propseg	False	0.5591545367927431	0.15833372941704005	0.3286713286713286	0.8
none	True	0.5461141642864595	0.11515546200221212	0.4192307692307692	0.6822916666666667
propseg	True	0.5337371881106262	0.15936812645663498	0.3251748251748251	0.754180602006689
