model	is_rfe	Mean	95% CI	Min.	Max
lr	True	0.6512316291772726	0.17787919574549954	0.3846153846153846	0.9032258064516128
lr	False	0.6492813152384148	0.20815056401442272	0.0	0.8666666666666667
rf	False	0.6303398453104929	0.16966982404503433	0.3157894736842105	0.8421052631578948
svm	False	0.6229103893274238	0.18690621979674218	0.3888888888888889	0.896551724137931
rf	True	0.6194607506411909	0.18123716362634784	0.3999999999999999	0.8095238095238096
svm	True	0.6177656252454261	0.17382068167173528	0.3999999999999999	0.8260869565217391
ada	True	0.6075158842259103	0.18441304145275567	0.3157894736842105	0.8095238095238096
ada	False	0.6053851040677836	0.19364160100684524	0.2352941176470588	0.8571428571428571
knn	True	0.5947213329906611	0.19626628909402002	0.3333333333333333	0.8636363636363636
knn	False	0.5906396045807258	0.19408793292386867	0.2857142857142857	0.8
