Metric Name	Values	Proportions
Sex	Male,Female	0.6075757575757575,0.3924242424242424
Symptom Duration	+2 yrs,<=2 yrs	0.6554934823091247,0.34450651769087526
Work Status (Category)	W,HSR,NW	0.3515151515151515,0.4090909090909091,0.23939393939393938
Comorbidities: Nicotine (Smoking)	0.0,1.0	0.8223583460949464,0.1776416539050536
Comorbidities: Nicotine (Smokeless)	0.0	1.0
Comorbidities: Nicotine (Patches)	0.0,1.0	0.9632465543644717,0.036753445635528334
Comorbidities: Nicotine (Recent Quit)	0.0,1.0	0.9509954058192955,0.04900459418070444
