	s0	s1	s2	s3	s4	s5	s6	s7	s8	s9	Mean	STD	Magnitude
STD(angle_RL) [V2]	1.0	0.7156136407163975	0.0	0.0	0.7136533844759072	0.9557055603053445	0.31158617704835573	0.9652836061606256	0.788471854822739	0.09815132856810829	0.5548465552097478	0.38941110550008406	0.5548465552097478
Age	-0.7766028726794957	-1.0	-1.0	-1.0	-0.8427207728235786	-1.0	-1.0	-1.0	-0.9090160328271287	-1.0	-0.9528339678330203	0.07789401015162492	0.9528339678330203
SUM(length) [V4]	-0.6563921555611198	-0.4633526752010845	0.0	-0.4679701190685699	-0.35091087093727946	-0.8528703621670035	-0.27426245450070325	-0.8965348734160318	-1.0	-0.3962495746826191	-0.5358543085534411	0.29659377750168736	0.5358543085534411
mJOA [Initial]	-0.5324238516408637	-0.45649994198715466	0.0	-0.9636987459568503	-1.0	-0.3912776717769335	-0.25557581964151077	-0.098859580189002	-0.8661490177370039	-0.23523908031497048	-0.4799723709244289	0.33920345483602626	0.4799723709244289
STD(area) [V4]	0.5178656991822611	0.03627227980759694	0.0	0.17562351910731105	0.2818405445368186	0.43467669296916467	0.24780772927889436	0.0	0.11384741458038848	0.2884045355980548	0.20963384150604902	0.16935338989690352	0.20963384150604902
SUM(length) [V3]	0.3287516122651515	0.35322568508047575	0.0	0.16078109445335778	0.26010715559203584	0.03723366454628865	0.19893949141056202	0.7182761329568977	0.0	0.07906419142195491	0.21363790277267242	0.2081047287879855	0.21363790277267242
MEAN(angle_RL) [V2]	-0.28185455328120707	-0.36855421775572805	0.0	-0.47051585317207933	-0.1874345511031671	-0.3849928401313064	-0.5216394427711848	-0.6193593512489572	-0.2880969657462698	-0.4468035036622197	-0.356925127887212	0.16864223795803007	0.356925127887212
MEAN(angle_RL) [V4]	0.2762383480747866	0.11962440747705375	0.0	0.0	0.15555142255168602	0.1516717738599404	0.12436568052661962	0.38280245239960436	0.4500408182715928	0.0414492769863407	0.1701744180147624	0.14645278799586645	0.1701744180147624
('MCS', 'initial')	0.1923900897620657	0.13415855752404232	0.0	0.4021925228872592	0.20994734254597008	0.3488125164940468	0.21579978070334577	0.4352100102381531	0.3553839229873318	0.2833512894337771	0.25772460325759916	0.12683162934730313	0.25772460325759916
MEAN(area) [V3]	0.13876395862351432	0.0	0.0	0.026584709135466938	0.0	0.0	0.3504127846971723	0.10247835750432963	0.044188852078571275	0.5091640442896057	0.11715927063286602	0.1664904946541441	0.11715927063286602
STD(angle_AP) [V4]	0.11935087511824512	0.4436665044995705	0.0	0.3483709266885001	0.14383779280267595	0.08144338972148274	0.26318148574291017	0.3074381317973022	0.07699307186891112	0.18551320838440627	0.19697953866240042	0.13262188127947097	0.19697953866240042
MEAN(angle_AP) [V5]	0.09675012956757574	0.00789229130740566	0.0	0.0	0.23773094832293154	0.2951760771154721	0.25876130382563084	0.4887521765500488	0.0	0.23962810223610334	0.16246910289251681	0.1588595077417332	0.16246910289251681
STD(orientation) [V5]	0.0854761693071375	0.05652299751937968	0.0	0.0	0.0	0.0	0.1003397393763526	0.0	0.0	0.08523486401317489	0.032757377021604465	0.04135651413755953	0.032757377021604465
('NDI', 'initial')	-0.0476970098867644	0.0	0.0	0.0	0.0	0.0	-0.1866534854011763	0.0	-0.022170900773449357	-0.01376598931592007	-0.027028738537731013	0.05521779839697264	0.027028738537731013
MEAN(angle_RL) [V5]	0.02721916732212427	0.0	0.0	0.0	0.0980824161339756	0.0	0.04586949340656487	0.0	0.0	0.01516738211364664	0.018633845897631136	0.03036922982325659	0.018633845897631136
('PCS', 'initial')	0.02504446769756783	0.20234478794058264	0.0	0.0	0.06369638693771258	0.04939249632418472	0.19542306277565147	0.0	0.1993954532811377	0.21802329737103746	0.09533199523278743	0.09092220425766834	0.09533199523278743
MEAN(angle_RL) [V3]	0.017906362767439104	0.0	0.0	0.3611303422817812	0.0	0.0	0.015815868087863862	0.1470014072379182	0.0	-0.06847540200498292	0.04733785783700195	0.11613589892500877	0.04733785783700195
STD(angle_AP) [V6]	0.0	0.0	0.0	0.0	0.0	0.0	0.1698626273961986	0.0	0.0	0.10295742968749295	0.027282005708369157	0.05657779260370625	0.027282005708369157
STD(angle_AP) [V5]	0.0	0.0	0.0	0.0	0.0	0.0	0.0014757265654720285	0.0	0.0	-0.10778180803136829	-0.010630608146589626	0.032386721994890726	0.010630608146589626
MEAN(angle_RL) [V6]	0.0	0.0	0.0	-0.27471389121750417	0.0	-0.2511459900883989	-0.22077535209706256	-0.49071168427763595	-0.12355791717369288	-0.12466805170716165	-0.14855728865614562	0.15433656256040823	0.14855728865614562
Symptom Duration_<=2 yrs	0.0	0.0	0.0	0.0	0.0	0.0	0.00904214651576601	0.0	0.0	0.00685008040535539	0.0015892226921121401	0.0032160181517082846	0.0015892226921121401
STD(angle_RL) [V3]	0.0	0.22297898249420411	0.0	0.08977883617227722	0.0	0.30433636669436814	0.19817372188670282	0.015387864462612023	0.35048147979751565	0.18605250763911504	0.13671897591467952	0.12666574915846363	0.13671897591467952
STD(angle_RL) [V4]	0.0	0.0	0.0	0.0	0.0	0.0	-0.033137115802801334	0.0	0.0	0.0029467187864146015	-0.003019039701638673	0.010077725875085953	0.003019039701638673
STD(angle_RL) [V5]	0.0	0.0	0.0	-0.1568758280607873	0.0	0.0	-0.08666239617727771	0.0	0.0	-0.060705529177619295	-0.030424375341568426	0.05152584930346471	0.030424375341568426
STD(angle_AP) [V3]	0.0	0.0	0.0	0.0	0.0	0.0	0.020527293316352734	0.0	0.0	-0.045534032808821345	-0.002500673949246861	0.015595461560101321	0.002500673949246861
MEAN(diameter_AP) [V2]	0.0	0.0	0.0	0.0	0.0	0.0	0.007296101241297071	0.0	0.0	-0.0012009145163524573	0.0006095186724944614	0.0022574356885113832	0.0006095186724944614
MEAN(diameter_AP) [V3]	0.0	0.0	0.0	0.0	0.0	0.0	0.000411921587757037	0.0	0.0	0.0030267194816365845	0.00034386410693936214	0.0009026785127921603	0.00034386410693936214
MEAN(diameter_AP) [V4]	0.0	0.0	0.0	0.0	0.0	0.0	0.01743715849270293	0.0	0.0	0.001779423090975608	0.0019216581583678537	0.00519897241827769	0.0019216581583678537
MEAN(diameter_AP) [V5]	0.0	0.0	0.0	0.0	0.0	0.0	0.015502625439983967	0.0	0.0	-0.015535802817656676	-3.317737767270963e-06	0.0069404067218550546	3.317737767270963e-06
MEAN(diameter_AP) [V6]	0.0	0.0	0.0	0.0	0.0	0.0	-0.007671811707739554	0.0	0.0	-0.01495329886198117	-0.0022625110569720725	0.004809036066672075	0.0022625110569720725
STD(diameter_AP) [V2]	0.0	0.0	0.0	0.0	0.0	0.0	0.01349387858488352	0.0	0.0	0.0033999003052027662	0.0016893778890086284	0.004063300442130553	0.0016893778890086284
STD(diameter_AP) [V3]	0.0	0.0	0.0	0.0	0.0	0.0	0.005594477006061828	0.0	0.0	-0.002765296627573069	0.0002829180378488759	0.0019530645726247486	0.0002829180378488759
STD(angle_RL) [V6]	0.0	0.0	0.0	0.0	0.0	0.0	-0.08239355499268967	0.0	0.0	-0.0015476281393448591	-0.008394118313203454	0.024670794139286422	0.008394118313203454
MEAN(angle_AP) [V2]	0.0	0.0	0.0	0.0	0.0	0.0	0.11005782786312805	0.0	0.0	0.06020938664713079	0.017026721451025885	0.03583127583643285	0.017026721451025885
STD(angle_AP) [V2]	0.0	0.0	0.0	0.0	0.0	0.0	0.031203465278742085	0.0	0.0	0.06315276283682807	0.009435622811557015	0.020178250471501645	0.009435622811557015
MEAN(angle_AP) [V6]	0.0	0.0	0.0	0.0	0.0	0.0	0.01195986109960011	0.0	0.0	0.04744369851873614	0.0059403559618336245	0.014286582926387717	0.0059403559618336245
('EQ5D: Mobility', 'initial')	0.0	0.0	0.0	0.0	0.0	0.0	0.0022221371272170072	0.0	0.0	-0.0031667226018763273	-9.4458547465932e-05	0.0012197049347074437	9.4458547465932e-05
('EQ5D: Pain/Discomfort', 'initial')	0.0	0.0	0.0	0.0	0.0	0.0	-0.014702148694546922	0.0	0.0	-0.0017377846022844418	-0.001643993329683136	0.004383445344475943	0.001643993329683136
('EQ5D: Self-Care', 'initial')	0.0	0.0	0.0	0.0	0.0	0.0	-0.009431749130816331	0.0	0.0	-0.026411689171921326	-0.003584343830273766	0.008112089802539323	0.003584343830273766
('EQ5D: Total', 'initial')	0.0	0.0	0.0	0.0	0.0	0.0	0.010760320959548288	0.0	0.0	0.007061246087290933	0.0017821567046839223	0.003659028262493707	0.0017821567046839223
('EQ5D: Usual Activities', 'initial')	0.0	0.0	0.0	0.0	0.0	0.0	-0.02910702235964622	0.0	0.0	-0.0223091083413643	-0.0051416130701010514	0.010394966166396768	0.0051416130701010514
('Pain Scale: Arm', 'initial')	0.0	0.0	0.0	0.0	0.0	0.0	0.06296748835825464	0.0	0.0	0.047649333640388196	0.011061682199864285	0.022386950340794565	0.011061682199864285
('Pain Scale: Neck', 'initial')	0.0	0.0	0.0	0.0	0.0	0.0	0.09578312517856583	0.0	0.0	0.04438585166252012	0.014016897684108595	0.03029814629628744	0.014016897684108595
BMI	0.0	0.10940728251582162	0.0	0.0	0.0	0.0	0.003076491698733232	0.0	0.0	0.08233588054090665	0.01948196547554615	0.038682225511482544	0.01948196547554615
MEAN(area) [V2]	0.0	0.0	0.0	0.32401051248013024	0.04564263881565526	0.0	0.16970670693551926	0.044718837198358063	0.0	0.16753968573185377	0.07516183811615165	0.10461487975431932	0.07516183811615165
MEAN(area) [V4]	0.0	0.0	0.0	0.0	0.0	0.0	0.08787845095514608	0.0	0.0	0.0016101968731507357	0.008948864782829682	0.02631424151905699	0.008948864782829682
MEAN(area) [V5]	0.0	0.0	0.0	0.0	0.0	0.03597104256786261	0.12207315416655871	-0.00577434241217182	0.045378339704937966	-0.042431683347866025	0.01552165106793214	0.042047043712071276	0.01552165106793214
MEAN(area) [V6]	0.0	0.0	0.0	-0.16783691633756337	0.0	0.0	-0.11109770547440798	-0.08678654215141474	0.0	-0.014829471647105446	-0.03805506356104915	0.058122172317418785	0.03805506356104915
STD(area) [V2]	0.0	0.0	0.0	0.0	0.0	0.0	0.061767622161376524	0.0	0.0	0.07265268147946266	0.013442030364083918	0.0269940168751101	0.013442030364083918
STD(area) [V3]	0.0	0.0	0.0	0.0	0.0	0.0	0.07120591475369185	0.0	0.016635920602989795	-0.14241675380310514	-0.005457491844642349	0.05033063256277423	0.005457491844642349
STD(area) [V5]	0.0	0.0	0.0	0.0	0.0	0.0	0.016981909825629627	0.0	0.0	0.07647684357164317	0.00934587533972728	0.022942621919366954	0.00934587533972728
STD(area) [V6]	0.0	0.0	0.0	0.0	0.0	0.0	-0.002642600763021364	0.0	0.0	0.11518309973992592	0.011254049897690455	0.034651974566384205	0.011254049897690455
STD(diameter_AP) [V5]	0.0	0.0	0.0	0.0	0.0	0.0	-0.012553685152632393	0.0	0.0	-0.008315746936411492	-0.0020869432089043885	0.004280109092651011	0.0020869432089043885
MEAN(angle_AP) [V3]	0.0	0.0	0.0	-0.006549458866337451	0.0	0.0	-0.04788317231115059	0.0	0.0	-0.030131022623565516	-0.008456365380105356	0.015901166535649384	0.008456365380105356
MEAN(angle_AP) [V4]	0.0	0.0	0.0	0.0	0.0	0.0	-0.005720160720001831	0.0	0.0	-0.03630692332589163	-0.004202708404589346	0.010836444715471797	0.004202708404589346
STD(diameter_AP) [V4]	0.0	0.0	0.0	0.0	0.0	0.0	0.019336958837699397	0.0	0.0	0.023327672907551052	0.004266463174525045	0.008579459308002975	0.004266463174525045
MEAN(diameter_RL) [V2]	0.0	0.0	0.0	0.0	0.0	0.0	-0.043052966317433675	0.0	0.0	-0.018802342829620403	-0.006185530914705408	0.013507324226673813	0.006185530914705408
STD(diameter_AP) [V6]	0.0	0.0	0.0	0.0	0.0	0.0	-0.00024566080266614555	0.0	0.0	0.008709531485396564	0.0008463870682730419	0.0026220712658446624	0.0008463870682730419
STD(solidity) [V5]	0.0	0.0	0.0	0.0	0.0	0.0	-0.000226377065607999	0.0	0.0	-8.111950832814868e-05	-3.0749657393614764e-05	6.95496485731179e-05	3.0749657393614764e-05
STD(orientation) [V4]	0.0	0.22409340501058334	0.0	0.0	0.0	0.0	0.18866752892539998	0.0	0.0	0.18370898509227349	0.059646991902825686	0.09164313690240508	0.059646991902825686
STD(orientation) [V6]	0.0	0.0	0.0	0.0	0.0	0.0	-0.03689223192247579	0.0	0.0	-0.0090741130062999	-0.004596634492877569	0.011099936110004077	0.004596634492877569
MEAN(solidity) [V2]	0.0	0.0	0.0	0.0	0.0	0.0	-0.0022509728909331722	0.0	0.0	-0.003238130800809314	-0.0005489103691742487	0.001119792128253986	0.0005489103691742487
MEAN(solidity) [V3]	0.0	0.0	0.0	0.0	0.0	0.0	-0.002007495250911619	0.0	0.0	-0.0023770100251740726	-0.0004384505276085691	0.0008807851719124489	0.0004384505276085691
MEAN(solidity) [V4]	0.0	0.0	0.0	0.0	0.0	0.0	-0.002835560907277813	0.0	0.0	-0.0035991926226897376	-0.000643475352996755	0.001298229097461747	0.000643475352996755
MEAN(solidity) [V5]	0.0	0.0	0.0	0.0	0.0	0.0	-0.002079566762971808	0.0	0.0	-0.0033570505943455137	-0.0005436617357317321	0.0011242199867314321	0.0005436617357317321
MEAN(solidity) [V6]	0.0	0.0	0.0	0.0	0.0	0.0	-0.0022743475824059797	0.0	0.0	-0.002781787772785344	-0.0005056135355191324	0.0010175730767572617	0.0005056135355191324
STD(solidity) [V2]	0.0	0.0	0.0	0.0	0.0	0.0	2.2557293401562033e-05	0.0	0.0	0.0001695492819427817	1.9210657534434372e-05	5.0562136885088064e-05	1.9210657534434372e-05
STD(solidity) [V3]	0.0	0.0	0.0	0.0	0.0	0.0	-0.00012677275407876263	0.0	0.0	0.00020833669232462934	8.15639382458667e-06	7.668783537384801e-05	8.15639382458667e-06
STD(solidity) [V4]	0.0	0.0	0.0	0.0	0.0	0.0	4.3789762429518666e-05	0.0	0.0	-0.0001312601958314723	-8.747043340195364e-06	4.2873855239991634e-05	8.747043340195364e-06
STD(solidity) [V6]	0.0	0.0	0.0	0.0	0.0	0.0	-0.0002822262331996435	0.0	0.0	-3.923490403707504e-05	-3.214611372367186e-05	8.417677715706727e-05	3.214611372367186e-05
STD(orientation) [V2]	0.0	0.0	0.0	0.0	0.0	0.0	0.07026765950037657	0.0	0.0	0.07566004046650304	0.01459276999668796	0.02921043706159046	0.01459276999668796
SUM(length) [V2]	0.0	0.0	0.0	0.0	0.0	0.0	0.05492243524299974	0.0	0.0	0.009580471500487336	0.006450290674348708	0.016407915252576274	0.006450290674348708
SUM(length) [V5]	0.0	0.0	0.0	0.0	0.0	0.0	-0.09180004382256543	0.0	0.0	-0.24284077804487614	-0.03346408218674416	0.07496695509439746	0.03346408218674416
SUM(length) [V6]	0.0	0.0	0.0	0.0	0.0	0.0	0.043983083627090934	0.0	0.0	0.10252378291266441	0.014650686653975533	0.03209238463209153	0.014650686653975533
Work Status (Category)_HSR	0.0	0.0	0.0	0.0	0.0	0.0	-0.007931915452572364	0.0	0.0	0.007592732229528714	-3.3918322304365024e-05	0.0034720795055730065	3.3918322304365024e-05
Work Status (Category)_NW	0.0	0.0	0.0	0.0	0.0	0.0	-0.01447367211545455	0.0	0.0	-0.02243408929080587	-0.003690776140626042	0.007593136780088929	0.003690776140626042
Work Status (Category)_W	0.0	0.0	0.0	0.0	0.0	0.0	0.019916271428903145	0.0	0.0	0.011872715824629745	0.0031788987253532895	0.0066073086625465715	0.0031788987253532895
Comorbidities: Nicotine (Smoking)_1.0	0.0	0.0	0.0	0.0	0.0	0.0	-0.02280547027387833	0.0	0.0	-0.02843099150244029	-0.005123646177631861	0.010324210626914604	0.005123646177631861
Comorbidities: Nicotine (Smokeless)_0.0	0.0	0.0	0.0	0.0	0.0	0.0	-0.0024893161391236463	0.0	0.0	-0.0029686412366474067	-0.0005457957375771053	0.0010968407250303727	0.0005457957375771053
Comorbidities: Nicotine (Patches)_1.0	0.0	0.0	0.0	0.0	0.0	0.0	0.006019962454558392	0.0	0.0	0.009012581246491678	0.001503254370105007	0.0030800784351458998	0.001503254370105007
Comorbidities: Nicotine (Recent Quit)_1.0	0.0	0.0	0.0	0.0	0.0	0.0	-0.011694509553419009	0.0	0.0	-0.0019868230502056855	-0.0013681332603624695	0.0034927229112361132	0.0013681332603624695
STD(orientation) [V3]	0.0	0.0	0.0	0.0	0.0	0.0	0.0873596739155121	0.0	0.0	-0.06966046306741266	0.0017699210848099432	0.03528876100818279	0.0017699210848099432
MEAN(orientation) [V6]	0.0	0.0	0.0	0.0	0.0	0.0	-0.0022749429331210477	0.0	0.0	0.009599317781686904	0.0007324374848565856	0.003032451492283716	0.0007324374848565856
Sex_Male	0.0	0.0	0.0	0.0	0.0	0.0	-0.011089356290134994	0.0	0.0	-0.015221771436774233	-0.0026311127726909227	0.005342739038889877	0.0026311127726909227
MEAN(eccentricity) [V3]	0.0	0.0	0.0	0.0	0.0	0.0	-0.0028755601480582914	0.0	0.0	-0.0025783361056803625	-0.0005453896253738654	0.0010928021231815734	0.0005453896253738654
MEAN(diameter_RL) [V3]	0.0	0.0	0.0	0.0	0.0	0.0	0.000991170465942197	0.0	0.0	0.030297495481929494	0.0031288665947871693	0.009061029685915082	0.0031288665947871693
MEAN(diameter_RL) [V4]	0.0	0.0	0.0	0.0	0.0	0.0	-0.0738143963316005	0.0	0.0	-0.07031548927956345	-0.014412988561116396	0.028836592631228605	0.014412988561116396
MEAN(diameter_RL) [V5]	0.0	0.0	0.0	0.0	0.0	0.0	-0.0476493636466552	0.0	0.0	-0.01816649061576162	-0.006581585426241682	0.014721788512251399	0.006581585426241682
MEAN(diameter_RL) [V6]	0.0	0.0	0.0	0.0	0.0	0.0	-0.04120616820194011	0.0	0.0	-0.028912800560778686	-0.00701189687627188	0.014290666031082075	0.00701189687627188
STD(diameter_RL) [V2]	0.0	0.0	0.0	0.0	0.0	0.0	0.03240681144126843	0.0	0.0	0.036065444474625424	0.006847225591589385	0.013718865586924636	0.006847225591589385
STD(diameter_RL) [V3]	0.0	0.0	0.0	0.0	0.0	0.0	0.017099299106412686	0.0	0.0	-0.024924582525461526	-0.000782528341904884	0.00952626546942853	0.000782528341904884
STD(diameter_RL) [V4]	0.0	0.0	0.0	0.0	0.0	0.0	0.017362388262508466	0.0	0.0	0.029133575846542907	0.004649596410905137	0.009664524302526952	0.004649596410905137
STD(diameter_RL) [V5]	0.0	0.0	0.0	0.0	0.0	0.0	-0.001684765870682815	0.0	0.0	-0.0024173548650977365	-0.0004102120735780552	0.0008366182600049584	0.0004102120735780552
STD(diameter_RL) [V6]	0.0	0.0	0.0	0.0	0.0	0.0	-0.005818777943196712	0.0	0.0	0.014487694597822176	0.0008668916654625463	0.004860416236450477	0.0008668916654625463
MEAN(eccentricity) [V2]	0.0	0.0	0.0	0.0	0.0	0.0	-0.0036303748339787376	0.0	0.0	-0.0032473566476844875	-0.0006877731481663224	0.0013782099839669076	0.0006877731481663224
MEAN(eccentricity) [V4]	0.0	0.0	0.0	0.0	0.0	0.0	-0.005863980697556314	0.0	0.0	-0.005261467235181313	-0.0011125447932737627	0.002229164595039898	0.0011125447932737627
MEAN(orientation) [V5]	0.0	0.0	0.0	0.0	0.0	0.0	0.011698082511497166	0.0	0.0	-0.029878957323514733	-0.0018180874812017567	0.009982699055331605	0.0018180874812017567
MEAN(eccentricity) [V5]	0.0	0.0	0.0	0.0	0.0	0.0	-0.004345371700379189	0.0	0.0	-0.0025038046694271527	-0.0006849176369806342	0.001430390553052913	0.0006849176369806342
MEAN(eccentricity) [V6]	0.0	0.0	0.0	0.0	0.0	0.0	-0.002847508804844217	0.0	0.0	-0.0022581777404558955	-0.0005105686545300112	0.0010296052443179364	0.0005105686545300112
STD(eccentricity) [V2]	0.0	0.0	0.0	0.0	0.0	0.0	0.001677551518779927	0.0	0.0	0.0009111308992301259	0.0002588682418010053	0.0005453632686165525	0.0002588682418010053
STD(eccentricity) [V3]	0.0	0.0	0.0	0.0	0.0	0.0	0.0013093798281457471	0.0	0.0	0.0005878841173816829	0.000189726394552743	0.00041232538388083696	0.000189726394552743
STD(eccentricity) [V4]	0.0	0.0	0.0	0.0	0.0	0.0	0.0003499532802514618	0.0	0.0	0.0006616236271364463	0.0001011576907387908	0.00021398232132302357	0.0001011576907387908
STD(eccentricity) [V5]	0.0	0.0	0.0	0.0	0.0	0.0	0.00023305587125570522	0.0	0.0	-0.0011755279375514627	-9.424720662957575e-05	0.00036706342933013247	9.424720662957575e-05
STD(eccentricity) [V6]	0.0	0.0	0.0	0.0	0.0	0.0	0.0009313154337451321	0.0	0.0	0.00040548767498492164	0.00013368031087300538	0.00029207266844837217	0.00013368031087300538
MEAN(orientation) [V2]	0.0	0.0	0.0	0.0	0.0	0.0	-0.09866543084819701	0.0	0.0	-0.1574130933643394	-0.02560785242125364	0.05287355496909918	0.02560785242125364
MEAN(orientation) [V3]	0.0	-0.7630892549471491	0.0	0.0	-0.31378326117710875	-0.2724463244814836	-0.15064711859131882	-0.044724353015293455	-0.10565664281909921	-0.3999029676672132	-0.20502499226986665	0.2303085328412667	0.20502499226986665
MEAN(orientation) [V4]	0.0	0.0	0.0	0.0	0.0	0.0	0.07848249808349958	0.0	0.0	0.0510041448583885	0.012948664294188807	0.026616247346547543	0.012948664294188807
('EQ5D: Anxiety/Depression', 'initial')	0.0	0.0	0.0	0.0	0.0	0.0	-0.049635203641698294	0.0	0.0	-0.04473648042767019	-0.00943716840693685	0.018906095964527705	0.00943716840693685
